Jorge Cimentada
…
devtools::install_github("cimentadaj/coauthornetwork")

There’s two functions: grab_network and plot_coauthors. The first scrapes and returns a data frame of a Google Scholar profile, their coauthors and the coauthors of their coauthors (what?). More simply, by default, the data frame returns this:

Google Scholar Profile –> Coauthors –> Coauthors

It’s not that hard after all. The only thing you need to provide is the end of the URL of a Google Scholar profile. For example, a typical URL looks like this: https://scholar.google.com/citations?user=F0kCgy8AAAAJ&hl=en. grab_network will accept the latter part of the URL, namely: citations?user=F0kCgy8AAAAJ&hl=en. Let’s test it:

library(coauthornetwork)

network <- grab_network("citations?user=F0kCgy8AAAAJ&hl=en")
network

## # A tibble: 21 x 4
##    author       href                 coauthors     coauthors_href          
##    <fct>        <fct>                <fct>         <fct>                   
##  1 Hans-Peter ~ citations?user=F0kC~ Melinda Mills /citations?user=HX9KQ5M~
##  2 Hans-Peter ~ citations?user=F0kC~ Karl Ulrich ~ /citations?user=iuzu9xw~
##  3 Hans-Peter ~ citations?user=F0kC~ Florian Schu~ /citations?user=MWCt6hQ~
##  4 Hans-Peter ~ citations?user=F0kC~ Yossi Shavit  /citations?user=brfWXKM~
##  5 Hans-Peter ~ citations?user=F0kC~ Jan Skopek    /citations?user=Mmo1hFk~
##  6 Melinda Mil~ /citations?user=HX9~ Hans-Peter B~ /citations?user=F0kCgy8~
##  7 Melinda Mil~ /citations?user=HX9~ Tanturri Mar~ /citations?user=xN3XevQ~
##  8 Melinda Mil~ /citations?user=HX9~ René Veenstra /citations?user=_9OVrqM~
##  9 Melinda Mil~ /citations?user=HX9~ Francesco C.~ /citations?user=-JR6yo4~
## 10 Karl Ulrich~ /citations?user=iuz~ Paul B. Balt~ /citations?user=vcOZeDg~
## # ... with 11 more rows
…
