…
openes_data_publishers("L01280796")
#> # A tibble: 361 x 5
#>    description         publisher   is_readable path_id        url          
#>    <chr>               <chr>       <lgl>       <chr>          <chr>        
#>  1 Relación de Biliot~ Ayuntamien~ TRUE        l01280796-sed~ http://datos~
#>  2 Relación de oficin~ Ayuntamien~ TRUE        l01280796-sed~ http://datos~
#>  3 En este conjunto d~ Ayuntamien~ TRUE        l01280796-tax~ http://datos~
#>  4 En este conjunto d~ Ayuntamien~ TRUE        l01280796-tax~ http://datos~
#>  5 Inventario de telé~ Ayuntamien~ TRUE        l01280796-tel~ http://datos~
#>  6 Relación de los te~ Ayuntamien~ TRUE        l01280796-tem~ http://datos~
#>  7 Este conjunto de d~ Ayuntamien~ TRUE        l01280796-tra~ http://datos~
#>  8 Este conjunto de d~ Ayuntamien~ FALSE       l01280796-tra~ http://datos~
#>  9 Tráfico: Informaci~ Ayuntamien~ FALSE       l01280796-tra~ http://datos~
#> 10 Relación de distin~ Ayuntamien~ TRUE        l01280796-uni~ http://datos~
#> # ... with 351 more rows
```
…
