Jorge Cimentada
…
dataset_ready <-
  ger_student %>%
  left_join(ger_parent, by = c("CNT", "STIDSTD")) %>%
  left_join(ger_weights, by = c("CNT", "STIDSTD")) %>%
  as_tibble() %>%
  rename(income = PA07Q01,
         score = avg_score,
         wt = W_FSTUWT) %>%
  select(-CNT, -STIDSTD)

The final results is this dataset:

## # A tibble: 10 x 3
##   score income            wt
##   <dbl> <fct>          <dbl>
## 1  440. Less than <$A>  137.
## 2  523. Less than <$A>  170.
## 3  291. Less than <$A>  162.
## 4  437. Less than <$A>  162.
## 5  367. Less than <$A>  115.
## # ... with 5 more rows
…
    di "`hi_p'-`lo_p' gap:     `diff`hi_p'`lo_p''"
    di "se(`hi_p'-`lo_p' gap): `se`hi_p'`lo_p''"

I get that the 90/10 difference is 95.22 with a standard error of 8.45. Does it sound familiar?

perc_diff(dataset_ready, income, score, weights = wt, percentiles = c(90, 10))
## difference         se 
##  95.228517   8.454902

The second function of the package is called perc_dist and instead of calculating the difference of two percentiles, it returns the score and standard error of every percentile. The arguments of the function are exactly the same but without the percentiles argument, because this will return the whole set of percentiles.

perc_dist(dataset_ready, income, score)
## # A tibble: 100 x 3
##   percentile estimate std.error
##        <int>    <dbl>     <dbl>
## 1          1     3.69      1.33
## 2          2     7.28      2.59
## 3          3    10.8       3.79
## 4          4    14.1       4.93
## 5          5    17.4       6.01
## # ... with 95 more rows
…
