…
dataset_ready <-
  ger_student %>%
  left_join(ger_parent, by = c("CNT", "STIDSTD")) %>%
  left_join(ger_weights, by = c("CNT", "STIDSTD")) %>%
  as_tibble() %>%
  rename(income = PA07Q01,
         score = avg_score,
         wt = W_FSTUWT) %>%
  select(-CNT, -STIDSTD)

The final results is this dataset:

## # A tibble: 10 x 3
##      score         income       wt
##      <dbl>         <fctr>    <dbl>
## 1 439.5622 Less than <$A> 137.3068
## 2 523.1422 Less than <$A> 170.0566
## 3 291.4083 Less than <$A> 162.3794
## 4 436.6023 Less than <$A> 162.3794
## 5 367.4326 Less than <$A> 114.6644
## # ... with 5 more rows
…
