Jorge Cimentada
…
tmp <- map(ex_file[!str_sub(ex_file, 1, 1) == "#"], processLine)

offline <- as_tibble(do.call("rbind", tmp))

Good, let’s set warnings back: options(error = recover, warn = 1)

To finish off let’s set some names.

names(offline) <- c("time", "scanMac", "posX", "posY", "posZ",
                    "orientation", "mac", "signal", "channel", "type")

offline

## # A tibble: 1,181,628 x 10
##    time   scanMac posX  posY  posZ  orientation mac   signal channel type 
##    <chr>  <chr>   <chr> <chr> <chr> <chr>       <chr> <chr>  <chr>   <chr>
##  1 11396… 00:02:… 0.0   0.0   0.0   0.0         00:1… -38    243700… 3    
##  2 11396… 00:02:… 0.0   0.0   0.0   0.0         00:1… -56    242700… 3    
##  3 11396… 00:02:… 0.0   0.0   0.0   0.0         00:0… -53    246200… 3    
##  4 11396… 00:02:… 0.0   0.0   0.0   0.0         00:1… -65    244200… 3    
##  5 11396… 00:02:… 0.0   0.0   0.0   0.0         00:1… -65    242200… 3    
##  6 11396… 00:02:… 0.0   0.0   0.0   0.0         00:1… -66    243200… 3    
##  7 11396… 00:02:… 0.0   0.0   0.0   0.0         00:0… -75    241200… 3    
##  8 11396… 00:02:… 0.0   0.0   0.0   0.0         00:0… -78    246200… 3    
##  9 11396… 00:02:… 0.0   0.0   0.0   0.0         00:0… -87    243700… 3    
## 10 11396… 00:02:… 0.0   0.0   0.0   0.0         02:6… -88    244700… 1    
## # ... with 1,181,618 more rows
…
tmp <- map(ex_file[!str_sub(ex_file, 1, 1) == "#"], processLine)

# Interestingly, applying as_tibble instead of as.data.frame is
# very slow. So I opt for data frame and then convert the binded
# df to a tibble
final_data <-
  bind_rows(map(tmp, as.data.frame, stringsAsFactors = FALSE)) %>%
  as_tibble() %>%
  add_column(mac_indicators = rep(c("signal", "chanel", "type"), length(unique(.$t))),
             .after = "degree")

final_data

## # A tibble: 438,222 x 40
##    t         id        pos   `0.0` degree mac_indicators `00:14:bf:b1:97:…
##    <chr>     <chr>     <chr> <chr> <chr>  <chr>          <chr>            
##  1 11396431… 00:02:2D… 0.0   0.0   0.0    signal         -38              
##  2 11396431… 00:02:2D… 0.0   0.0   0.0    chanel         2437000000       
##  3 11396431… 00:02:2D… 0.0   0.0   0.0    type           3                
##  4 11396431… 00:02:2D… 0.0   0.0   0.0    signal         -38              
##  5 11396431… 00:02:2D… 0.0   0.0   0.0    chanel         2437000000       
##  6 11396431… 00:02:2D… 0.0   0.0   0.0    type           3                
##  7 11396431… 00:02:2D… 0.0   0.0   0.0    signal         -38              
##  8 11396431… 00:02:2D… 0.0   0.0   0.0    chanel         2437000000       
##  9 11396431… 00:02:2D… 0.0   0.0   0.0    type           3                
## 10 11396431… 00:02:2D… 0.0   0.0   0.0    signal         -38              
## # ... with 438,212 more rows, and 33 more variables:
## #   `00:14:bf:b1:97:90` <chr>, `00:0f:a3:39:e1:c0` <chr>,
## #   `00:14:bf:b1:97:8d` <chr>, `00:14:bf:b1:97:81` <chr>,
## #   `00:14:bf:3b:c7:c6` <chr>, `00:0f:a3:39:dd:cd` <chr>,
## #   `00:0f:a3:39:e0:4b` <chr>, `00:0f:a3:39:e2:10` <chr>,
## #   `02:64:fb:68:52:e6` <chr>, `02:00:42:55:31:00` <chr>,
## #   `00:04:0e:5c:23:fc` <chr>, `00:30:bd:f8:7f:c5` <chr>, `1.0` <chr>,
## #   `2.0` <chr>, `3.0` <chr>, `4.0` <chr>, `5.0` <chr>, `6.0` <chr>,
## #   `7.0` <chr>, `8.0` <chr>, `9.0` <chr>, `10.0` <chr>, `11.0` <chr>,
…
