Jorge Cimentada
…
  Brief Analysis of Independent/Unionist Vote in Catalonia

        PUBLISHED ON DEC 14, 2017 

Catalan elections

On a train from Barcelona-Madrid I started working with an R package called ggrides. To my surprise, the package contains one dataset that documents the change in independent/unionist vote for all Catalan municipalities from 1980 to 2015. This is very cool! Needless to say, I left what I was doing and started to dive into the dataset.

The data looks like this:

library(ggridges)
Catalan_elections

## # A tibble: 20,764 x 4
##    Municipality        Year Option Percent
##    <chr>              <int> <chr>    <dbl>
##  1 Abella de la Conca  1980 Indy      68.4
##  2 Abella de la Conca  1984 Indy      95.7
##  3 Abella de la Conca  1988 Indy      89.4
##  4 Abella de la Conca  1992 Indy      81.7
##  5 Abella de la Conca  1995 Indy      80.0
##  6 Abella de la Conca  1999 Indy      74.7
##  7 Abella de la Conca  2003 Indy      84.4
##  8 Abella de la Conca  2006 Indy      73.2
##  9 Abella de la Conca  2010 Indy      75.9
## 10 Abella de la Conca  2012 Indy      84.0
## # ... with 20,754 more rows
…
