Jorge Cimentada
…
  Breve análisis del cambio de voto en Cataluña

        PUBLISHED ON DEC 14, 2017 

    On a train from Barcelona-Madrid I started working with an R package called ggrides. To my surprise, the package contains one dataset that documents the change in independent/unionist vote for all Catalan municipalities from 1980 to 2015. This is very cool! Needless to say, I left what I was doing and started to dive into the dataset.

library(ggridges)

Catalan_elections

## # A tibble: 20,764 x 4
##          Municipality  Year Option Percent
##                 <chr> <int>  <chr>   <dbl>
##  1 Abella de la Conca  1980   Indy   68.42
##  2 Abella de la Conca  1984   Indy   95.71
##  3 Abella de la Conca  1988   Indy   89.36
##  4 Abella de la Conca  1992   Indy   81.67
##  5 Abella de la Conca  1995   Indy   80.00
##  6 Abella de la Conca  1999   Indy   74.70
##  7 Abella de la Conca  2003   Indy   84.42
##  8 Abella de la Conca  2006   Indy   73.24
##  9 Abella de la Conca  2010   Indy   75.90
## 10 Abella de la Conca  2012   Indy   83.95
## # ... with 20,754 more rows
…
