…
  episode_links
}

all_episodes <- map_df(all_pages, episode_getter) # loop over all seasons and get all episode links
all_episodes$id <- 1:nrow(all_episodes)

There we go! Now we have a very organized tibble.

all_episodes
# # A tibble: 208 x 3
#    episode_name                   link                                  id
#    <chr>                          <chr>                              <int>
#  1 01x01 - Pilot                  http://transcripts.foreverdreamin~     1
#  2 01x02 - Purple Giraffe         http://transcripts.foreverdreamin~     2
#  3 01x03 - Sweet Taste of Liberty http://transcripts.foreverdreamin~     3
#  4 01x04 - Return of the Shirt    http://transcripts.foreverdreamin~     4
#  5 01x05 - Okay Awesome           http://transcripts.foreverdreamin~     5
#  6 01x06 - Slutty Pumpkin         http://transcripts.foreverdreamin~     6
#  7 01x07 - Matchmaker             http://transcripts.foreverdreamin~     7
#  8 01x08 - The Duel               http://transcripts.foreverdreamin~     8
#  9 01x09 - Belly Full of Turkey   http://transcripts.foreverdreamin~     9
# 10 01x10 - The Pineapple Incident http://transcripts.foreverdreamin~    10
# # ... with 198 more rows
…
The above function reads each episode, turns the html text into a data frame and organizes it clearly for text analysis. For example:

episode_fun(all_episodes$link[15])
# # A tibble: 195 x 1
#    text                                                                   
#    <chr>                                                                  
#  1 Ted from 2030: Kids, something you might not know about your Uncle Mar~
#  2 "Ted: You don't have to shout out \"poker\" when you win."             
#  3 Marshall: I know. It's just fun to say.                                
#  4 "Ted from 2030: We all finally agreed Marshall should be running our g~
#  5 "Marshall: It's called \"Marsh-gammon.\" It combines all the best feat~
#  6 Robin: Backgammon, obviously.                                          
#  7 "Marshall: No. Backgammon sucks. I took the only good part of backgamm~
#  8 Lily: I'm so excited Victoria's coming.                                
#  9 Robin: I'm going to go get another round.                              
# 10 Ted: Okay, I want to lay down some ground rules for tonight. Barney, I~
# # ... with 185 more rows
…
Just to make sure, let’s look at the tibble.

words_per_character
# # A tibble: 88,174 x 7
#    name     season episode character episode_lines_id all_lines_id word   
#    <ord>    <ord>  <ord>   <chr>                <int>        <int> <chr>  
#  1 "01x01 " 01     "01 "   marshall                 1            1 ring   
#  2 "01x01 " 01     "01 "   marshall                 1            1 marry  
#  3 "01x01 " 01     "01 "   ted                      2            2 perfect
#  4 "01x01 " 01     "01 "   ted                      2            2 engaged
#  5 "01x01 " 01     "01 "   ted                      2            2 pop    
#  6 "01x01 " 01     "01 "   ted                      2            2 champa~
#  7 "01x01 " 01     "01 "   ted                      2            2 drink  
#  8 "01x01 " 01     "01 "   ted                      2            2 toast  
#  9 "01x01 " 01     "01 "   ted                      2            2 kitchen
# 10 "01x01 " 01     "01 "   ted                      2            2 floor  
# # ... with 88,164 more rows
…
