Jorge Cimentada
…
bicing <-
  dbGetQuery(con, query) %>%
  as_tibble() %>% 
  mutate(time = lubridate::ymd_hms(time),
         slots = as.numeric(slots),
         bikes = as.numeric(slots))

Awesome. Now we have our data set.

bicing

## # A tibble: 46,399 x 4
##    slots bikes status time               
##    <dbl> <dbl> <chr>  <dttm>             
##  1   10.   10. OPN    2017-12-11 08:01:16
##  2   10.   10. OPN    2017-12-11 08:02:12
##  3   10.   10. OPN    2017-12-11 08:03:04
##  4   10.   10. OPN    2017-12-11 08:04:04
##  5   10.   10. OPN    2017-12-11 08:05:04
##  6    9.    9. OPN    2017-12-11 08:06:04
##  7    8.    8. OPN    2017-12-11 08:07:04
##  8    8.    8. OPN    2017-12-11 08:08:05
##  9    7.    7. OPN    2017-12-11 08:09:04
## 10    8.    8. OPN    2017-12-11 08:10:04
## # ... with 46,389 more rows
…
