Exploring Google Scholar coauthorship
…
devtools::install_github("cimentadaj/coauthornetwork")

Theres two functions: grab_network and plot_coauthors. The first scrapes and returns a data frame of a Google Scholar profile, their coauthors and the coauthors of their coauthors (what?). More simply, by default, the data frame returns this:

Google Scholar Profile > Coauthors > Coauthors

Its not that hard after all. The only thing you need to provide is the end of the URL of a Google Scholar profile. For example, a typical URL looks like this: https://scholar.google.com/citations?user=F0kCgy8AAAAJ&hl=en. grab_network will accept the latter part of the URL, namely: citations?user=F0kCgy8AAAAJ&hl=en. Lets test it:

library(coauthornetwork)

network <- grab_network("citations?user=F0kCgy8AAAAJ&hl=en")
network

## # A tibble: 21 x 4
##    author               href            coauthors    coauthors_href       
##    <chr>                <chr>           <chr>        <chr>                
##  1 Hans-Peter Blossfeld citations?user~ Melinda Mil~ /citations?user=HX9K~
##  2 Hans-Peter Blossfeld citations?user~ Karl Ulrich~ /citations?user=iuzu~
##  3 Hans-Peter Blossfeld citations?user~ Yossi Shavit /citations?user=brfW~
##  4 Hans-Peter Blossfeld citations?user~ Jan Skopek   /citations?user=Mmo1~
##  5 Hans-Peter Blossfeld citations?user~ Andreas Timm /citations?user=NnRu~
##  6 Melinda Mills        /citations?use~ Hans-Peter ~ /citations?user=F0kC~
##  7 Melinda Mills        /citations?use~ Tanturri Ma~ /citations?user=xN3X~
##  8 Melinda Mills        /citations?use~ Ren Veenst~ /citations?user=_9OV~
##  9 Melinda Mills        /citations?use~ Francesco C~ /citations?user=-JR6~
## 10 Karl Ulrich Mayer    /citations?use~ Paul B. Bal~ /citations?user=vcOZ~
## # ... with 11 more rows
…
