Jorge Cimentada
…
Run that function 160 times (# of schools in that data) and bind all of these datasets together

complete_df <-
  map(1:160, ~ navigate_click()) %>%
  bind_rows()

Aaaaandddd, we got our nicely formatted dataset ready for some analysis.

complete_df

## # A tibble: 160 x 4
##    school_name                   complexity   social_fund score_6th   
##    <chr>                         <chr>        <chr>       <chr>       
##  1 Escuela Collaso i Gil         Muy alta     52%         Bajo        
##  2 Escuela Ruben Darío           Muy alta     66%         Bajo        
##  3 Escuela Castella              Muy alta     25%         Mediano-bajo
##  4 Escuela Drassanes             Muy alta     41%         Bajo        
##  5 Escuela Milà i Fontanals      Muy alta     49%         Bajo        
##  6 Escuela Baixeras              Mediana-alta 24%         Bajo        
##  7 Escuela Cervantes             Mediana-alta 38%         Mediano-alto
##  8 Escuela Parc de la Ciutadella Mediana-baja 15%         Mediano-bajo
##  9 Escuela Pere Vila             Alta         30%         Mediano-alto
## 10 Escuela Alexandre Galí        Alta         27%         Bajo        
## # ... with 150 more rows
…
